increment-program-counter/test.vcd
$date
	Sun Nov 15 23:34:20 2020
$end
$version
	Icarus Verilog
$end
$timescale
	1s
$end
$scope module test $end
$var wire 4 ! sh_reg_out [3:0] $end
$var wire 5 " adder_out [4:0] $end
$var reg 5 # I [0:4] $end
$var reg 1 $ clk $end
$var reg 1 % reset $end
$scope module ipc $end
$var wire 5 & I [0:4] $end
$var wire 5 ' adder_out [4:0] $end
$var wire 1 $ clk $end
$var wire 1 % reset $end
$var wire 4 ( sh_reg_out [3:0] $end
$var wire 4 ) SH_OUT [0:3] $end
$scope module adder $end
$var wire 5 * S [4:0] $end
$var wire 4 + num_one [3:0] $end
$var wire 4 , sum [3:0] $end
$var wire 4 - propagates [3:0] $end
$var wire 4 . num_two [3:0] $end
$var wire 4 / generates [3:0] $end
$var wire 5 0 Cins [4:0] $end
$scope begin genblk1[0] $end
$upscope $end
$scope begin genblk1[1] $end
$upscope $end
$scope begin genblk1[2] $end
$upscope $end
$scope begin genblk1[3] $end
$upscope $end
$scope begin genblk2[0] $end
$var wire 1 1 cout $end
$scope module adder $end
$var wire 1 2 Cin $end
$var wire 1 1 Cout $end
$var wire 1 3 s $end
$var wire 1 4 x $end
$var wire 1 5 y $end
$upscope $end
$upscope $end
$scope begin genblk2[1] $end
$var wire 1 6 cout $end
$scope module adder $end
$var wire 1 7 Cin $end
$var wire 1 6 Cout $end
$var wire 1 8 s $end
$var wire 1 9 x $end
$var wire 1 : y $end
$upscope $end
$upscope $end
$scope begin genblk2[2] $end
$var wire 1 ; cout $end
$scope module adder $end
$var wire 1 < Cin $end
$var wire 1 ; Cout $end
$var wire 1 = s $end
$var wire 1 > x $end
$var wire 1 ? y $end
$upscope $end
$upscope $end
$scope begin genblk2[3] $end
$var wire 1 @ cout $end
$scope module adder $end
$var wire 1 A Cin $end
$var wire 1 @ Cout $end
$var wire 1 B s $end
$var wire 1 C x $end
$var wire 1 D y $end
$upscope $end
$upscope $end
$upscope $end
$scope module shreg $end
$var wire 1 $ clk $end
$var wire 5 E in [4:0] $end
$var wire 1 % reset $end
$var wire 4 F out [3:0] $end
$var reg 64 G ser [63:0] $end
$var integer 32 H i [31:0] $end
$upscope $end
$upscope $end
$upscope $end
$enddefinitions $end
#0
$dumpvars
bx H
bx G
bx F
bx E
xD
0C
xB
xA
x@
x?
1>
x=
x<
x;
x:
09
x8
x7
x6
x5
14
x3
02
x1
bx0 0
b0x0x /
bx .
bx -
bx ,
b101 +
bx *
bx )
bx (
bx '
bx &
0%
0$
b100 #
bx "
bx !
$end
#1
b101 H
1$
#2
0$
#3
b101 H
1$
#4
0$
#5
b101 H
1$
#6
0$
#7
b101 H
1$
#8
0$
#9
b101 H
1$
#10
0$
#11
b101 H
1$
#12
0$
#13
b101 H
1$
#14
0$
#15
b101 H
1$
#16
0$
#17
b101 H
1$
#18
0$
#19
b101 H
1$
#20
0$
#21
b101 H
1$
#22
0$
#23
b101 H
1$
#24
0$
#25
b101 H
1$
#26
0$
#27
b101 H
1$
#28
0$
#29
b101 H
1$
#30
0$
#31
b101 H
1$
#32
0$
#33
b101 H
1$
#34
0$
#35
b101 H
1$
#36
0$
#37
b101 H
1$
#38
0$
#39
b101 H
1$
#40
0$
#41
b101 H
1$
#42
0$
#43
b101 H
1$
#44
0$
#45
b101 H
1$
#46
0$
#47
b101 H
1$
#48
0$
#49
b101 H
1$
